%YAML 1.1
%TAG !u! tag:unity3d.com,2011:
--- !u!74 &7400000
AnimationClip:
  m_ObjectHideFlags: 0
  m_CorrespondingSourceObject: {fileID: 0}
  m_PrefabInstance: {fileID: 0}
  m_PrefabAsset: {fileID: 0}
  m_Name: Fondo
  serializedVersion: 6
  m_Legacy: 0
  m_Compressed: 0
  m_UseHighQualityCurve: 1
  m_RotationCurves: []
  m_CompressedRotationCurves: []
  m_EulerCurves: []
  m_PositionCurves: []
  m_ScaleCurves: []
  m_FloatCurves: []
  m_PPtrCurves:
  - curve:
    - time: 0
      value: {fileID: 21300000, guid: 353cb9ba39509d243a9c334c0a3c39cd, type: 3}
    - time: 0.016666668
      value: {fileID: 21300000, guid: 9c69dbfdc3baf6f4aa8673e33dc04cbc, type: 3}
    - time: 0.033333335
      value: {fileID: 21300000, guid: b9b83df38542daf4095b9c86a196204d, type: 3}
    - time: 0.05
      value: {fileID: 21300000, guid: 1dcd13590a783f747aa725f5c79b9588, type: 3}
    - time: 0.06666667
      value: {fileID: 21300000, guid: d90266617ac01fe4d83e91be5e4dcea0, type: 3}
    - time: 0.083333336
      value: {fileID: 21300000, guid: f0f32f3a19326dd48a2b5fddb5a2652f, type: 3}
    - time: 0.1
      value: {fileID: 21300000, guid: 3921d632d9689514a80b038cbf1e0e9b, type: 3}
    - time: 0.11666667
      value: {fileID: 21300000, guid: d6766b8fb60ee8c47a2dd7f2911fcb39, type: 3}
    - time: 0.13333334
      value: {fileID: 21300000, guid: 0f756b64d74a1aa47a51ae3910a06c41, type: 3}
    - time: 0.15
      value: {fileID: 21300000, guid: 24a3f6e2a3a9c9b4494b2dd9b50b0b1b, type: 3}
    - time: 0.16666667
      value: {fileID: 21300000, guid: b6c97511abfcbad46acc08a545ac8c46, type: 3}
    - time: 0.18333334
      value: {fileID: 21300000, guid: d2d23d690906e5f45bdc3e22871a03fa, type: 3}
    - time: 0.2
      value: {fileID: 21300000, guid: 8e7df85919c542b4790ae12c17e758b9, type: 3}
    - time: 0.21666667
      value: {fileID: 21300000, guid: 187cb8aac5e50fc409827f4549007fa0, type: 3}
    - time: 0.23333333
      value: {fileID: 21300000, guid: c899382a2d086c044b137879d774202e, type: 3}
    - time: 0.25
      value: {fileID: 21300000, guid: 1c3295a1298f82d459884ee2a87d31e4, type: 3}
    - time: 0.26666668
      value: {fileID: 21300000, guid: 4625a1c3f195cef479cb6955eb44e248, type: 3}
    - time: 0.28333333
      value: {fileID: 21300000, guid: a1c3533c1d3be854181090b9ce882792, type: 3}
    - time: 0.3
      value: {fileID: 21300000, guid: a1c3533c1d3be854181090b9ce882792, type: 3}
    - time: 0.31666666
      value: {fileID: 21300000, guid: 8fe883313ad0e7048b6cff90135eb7d2, type: 3}
    - time: 0.33333334
      value: {fileID: 21300000, guid: b8500479b7b79984287885de09946c62, type: 3}
    - time: 0.35
      value: {fileID: 21300000, guid: d583a14046c22154aac2feb64258dd6a, type: 3}
    - time: 0.36666667
      value: {fileID: 21300000, guid: b8408575ef978704dabf4cf746de3322, type: 3}
    - time: 0.38333333
      value: {fileID: 21300000, guid: 9ae95f9e83dd8314fb01fb3e628253af, type: 3}
    - time: 0.4
      value: {fileID: 21300000, guid: 273eeff2671a0b642871a41b784ad79c, type: 3}
    - time: 0.41666666
      value: {fileID: 21300000, guid: fbb5223e86afab5448554cf80dd8e284, type: 3}
    - time: 0.43333334
      value: {fileID: 21300000, guid: faf8319721735b7428a72b805846ce14, type: 3}
    - time: 0.45
      value: {fileID: 21300000, guid: b9cce6e6b10b5dd42a83852c0002b125, type: 3}
    - time: 0.46666667
      value: {fileID: 21300000, guid: 37d86dda7a474bb49826b0892946cb0b, type: 3}
    - time: 0.48333332
      value: {fileID: 21300000, guid: bc58a44e8bf61ce4daa8cde4835e9ccb, type: 3}
    - time: 0.5
      value: {fileID: 21300000, guid: 349008d48662afb459ea378162ca682e, type: 3}
    - time: 0.51666665
      value: {fileID: 21300000, guid: 630e4b0c443fb644ba830ddde56068fb, type: 3}
    - time: 0.53333336
      value: {fileID: 21300000, guid: bea073e7a92502d4596dbffa0bab9da9, type: 3}
    - time: 0.55
      value: {fileID: 21300000, guid: e6ff1f5f91fb4e04da070f7f48fcae34, type: 3}
    - time: 0.56666666
      value: {fileID: 21300000, guid: 9dd4c0ddd69beb846ae57305024f309d, type: 3}
    - time: 0.5833333
      value: {fileID: 21300000, guid: 790f6f212cb5fb044a6ff635b8a2eb02, type: 3}
    - time: 0.6
      value: {fileID: 21300000, guid: cd4b8599f0c7aba42bce02a012caab17, type: 3}
    - time: 0.6166667
      value: {fileID: 21300000, guid: 2d7e39d0790dabf4b98da9439a255eea, type: 3}
    - time: 0.6333333
      value: {fileID: 21300000, guid: d5137539955fdb645bab88532cf7b7f5, type: 3}
    - time: 0.65
      value: {fileID: 21300000, guid: 9eebb50dddcdb404fa37343b541edc72, type: 3}
    - time: 0.6666667
      value: {fileID: 21300000, guid: b6978c53907ff1740970013102e6c10a, type: 3}
    - time: 0.68333334
      value: {fileID: 21300000, guid: 7250c66d4c819594eb7c87bdae6c8f78, type: 3}
    - time: 0.7
      value: {fileID: 21300000, guid: e516ffb14d906ac4092e1034557ca592, type: 3}
    - time: 0.71666664
      value: {fileID: 21300000, guid: 07ee68fe1f4cd944eb0e564cd3db4938, type: 3}
    - time: 0.73333335
      value: {fileID: 21300000, guid: fa362cffdf6733e498b1e8df2e546363, type: 3}
    - time: 0.75
      value: {fileID: 21300000, guid: 431c147762ecf394e9449e5e6831a0b6, type: 3}
    - time: 0.76666665
      value: {fileID: 21300000, guid: 4d368854cbfcbbb409499751ac06c720, type: 3}
    - time: 0.78333336
      value: {fileID: 21300000, guid: 1c7d8c7718d12aa4ea00e889ca933b2e, type: 3}
    - time: 0.8
      value: {fileID: 21300000, guid: 3f30bbb42df0282408d03f3169d90e53, type: 3}
    - time: 0.81666666
      value: {fileID: 21300000, guid: 3ca05377ae313924c8f7ec8e8564bc12, type: 3}
    - time: 0.8333333
      value: {fileID: 21300000, guid: ce828406958c9e64a87d5b6ff27d70eb, type: 3}
    - time: 0.85
      value: {fileID: 21300000, guid: 5d8cbe415b6c24b4da82a4f8977a3aba, type: 3}
    - time: 0.8666667
      value: {fileID: 21300000, guid: 7ba4f934913756b48bcef48668b05741, type: 3}
    - time: 0.8833333
      value: {fileID: 21300000, guid: 7e1cdc8018302bf40a771ce99da6c8ff, type: 3}
    - time: 0.9
      value: {fileID: 21300000, guid: ed689f3d3e0cbcd4d911a2b8c50fbdfc, type: 3}
    - time: 0.9166667
      value: {fileID: 21300000, guid: e0420bd56515aa4498bbe0304464a4dc, type: 3}
    - time: 0.93333334
      value: {fileID: 21300000, guid: 20b4d04fddf835343a5c01a263ed2481, type: 3}
    - time: 0.95
      value: {fileID: 21300000, guid: cede746ea8495ee40aa2cb93c988c324, type: 3}
    - time: 0.96666664
      value: {fileID: 21300000, guid: e7f94d20a61e94f4d802748d05332e42, type: 3}
    - time: 0.98333335
      value: {fileID: 21300000, guid: fcdfb965f889dc04095eabf0d3f07b46, type: 3}
    - time: 1
      value: {fileID: 21300000, guid: 810d45f519bbc1e41a9d6e119f2fd21d, type: 3}
    - time: 1.0166667
      value: {fileID: 21300000, guid: a4dc2fe0759c71840991d2c7e93321c6, type: 3}
    - time: 1.0333333
      value: {fileID: 21300000, guid: 994308d6d071540489c67a1e143894a7, type: 3}
    - time: 1.05
      value: {fileID: 21300000, guid: 34b320b39d5d27845a823d7ccb978079, type: 3}
    - time: 1.0666667
      value: {fileID: 21300000, guid: fecf886dcf0516f4082cca34efa3dfc8, type: 3}
    - time: 1.0833334
      value: {fileID: 21300000, guid: ee288f0a01deb1e4d8875a0b3fc8511f, type: 3}
    - time: 1.1
      value: {fileID: 21300000, guid: 6c0f1067d8464d649bdfc0d87f016479, type: 3}
    - time: 1.1166667
      value: {fileID: 21300000, guid: 7390b93faeb829b42b0a086875d872dd, type: 3}
    - time: 1.1333333
      value: {fileID: 21300000, guid: 8c880ed8554c6934780fb9e645092f70, type: 3}
    - time: 1.15
      value: {fileID: 21300000, guid: 24d00d81e1671d44c9f68da60a9105fc, type: 3}
    - time: 1.1666666
      value: {fileID: 21300000, guid: 3514a91482a402f41972dc566eccde27, type: 3}
    - time: 1.1833333
      value: {fileID: 21300000, guid: c01dd7c94904cf1409397aa5331d4740, type: 3}
    - time: 1.2
      value: {fileID: 21300000, guid: 9a21d5bcb7a7d19449989fb6bd7f7610, type: 3}
    - time: 1.2166667
      value: {fileID: 21300000, guid: 43f7b48766b97cc4fb3209733a1baaa7, type: 3}
    - time: 1.2333333
      value: {fileID: 21300000, guid: a646270a4b6873d4c93c5930a45851fa, type: 3}
    - time: 1.25
      value: {fileID: 21300000, guid: 0ad1cb1c6cf4e8946b96703def13c946, type: 3}
    - time: 1.2666667
      value: {fileID: 21300000, guid: bad14263cce41c04fafec89478055731, type: 3}
    - time: 1.2833333
      value: {fileID: 21300000, guid: 3cce6cacba9fc8d40a1c1f2d1508c06d, type: 3}
    - time: 1.3
      value: {fileID: 21300000, guid: 5ca155ce2599303419957bd755d1d70f, type: 3}
    - time: 1.3166667
      value: {fileID: 21300000, guid: c9db3c98b17953745b98138e1801d8e2, type: 3}
    - time: 1.3333334
      value: {fileID: 21300000, guid: a37e3bfde04519b4099b098db5ab7e6d, type: 3}
    - time: 1.35
      value: {fileID: 21300000, guid: 9d6a48f3a560e8f42ab7c4def27e3c8e, type: 3}
    - time: 1.3666667
      value: {fileID: 21300000, guid: 92ee2776cd5acb945a360fdf5cbb09f6, type: 3}
    - time: 1.3833333
      value: {fileID: 21300000, guid: 177b36df486c3ce459863a2ebf8be076, type: 3}
    - time: 1.4
      value: {fileID: 21300000, guid: f6224916d9699c343b801dd602c25267, type: 3}
    - time: 1.4166666
      value: {fileID: 21300000, guid: fa01d5a5f6e07ca4b8b9dcc3515fc8e2, type: 3}
    - time: 1.4333333
      value: {fileID: 21300000, guid: 6486f77dcc92dac42b6da69f91aa4bca, type: 3}
    - time: 1.45
      value: {fileID: 21300000, guid: a6e07f35d7c1d1c4b8e259ee3c92ec82, type: 3}
    - time: 1.4666667
      value: {fileID: 21300000, guid: f74bde669b7afcc469990bde2f949cfe, type: 3}
    - time: 1.4833333
      value: {fileID: 21300000, guid: 39e1318ae5c08a74080fa9ea9fe30c85, type: 3}
    - time: 1.5
      value: {fileID: 21300000, guid: 7be5bcb318e8a074bb66d515e35d7aad, type: 3}
    - time: 1.5166667
      value: {fileID: 21300000, guid: c6bd310e85a8689449467f4675abd9ea, type: 3}
    - time: 1.5333333
      value: {fileID: 21300000, guid: e5c5321c80982eb488833894fa546f81, type: 3}
    - time: 1.55
      value: {fileID: 21300000, guid: ba92a6ab5cee87e44841aad9dc643398, type: 3}
    - time: 1.5666667
      value: {fileID: 21300000, guid: bc31dd0375aa83847937468e6622c169, type: 3}
    - time: 1.5833334
      value: {fileID: 21300000, guid: 869ff3d5a7495234b8a9651d62d2454b, type: 3}
    - time: 1.6
      value: {fileID: 21300000, guid: dc9ee291c5c22154bbce287a8364b626, type: 3}
    - time: 1.6166667
      value: {fileID: 21300000, guid: ed8d1dffe3cd3c348a9da64f173387ac, type: 3}
    - time: 1.6333333
      value: {fileID: 21300000, guid: 3f694667d87674a46aa317c5be9130d2, type: 3}
    - time: 1.65
      value: {fileID: 21300000, guid: 068d063b25bc7474a8b2cad5a277ea95, type: 3}
    - time: 1.6666666
      value: {fileID: 21300000, guid: 1a9b12744764fbd45a3469d1c7cf972a, type: 3}
    - time: 1.6833333
      value: {fileID: 21300000, guid: 03c408638b339e74a92428e74315fe39, type: 3}
    - time: 1.7
      value: {fileID: 21300000, guid: 0411f84728845464d8becfb15ab06014, type: 3}
    - time: 1.7166667
      value: {fileID: 21300000, guid: 04dd96b987fc3aa4da87a2a6747ec3bc, type: 3}
    - time: 1.7333333
      value: {fileID: 21300000, guid: 22e882492b92895479882f981806633b, type: 3}
    - time: 1.75
      value: {fileID: 21300000, guid: 23257aacc67e73d4a809b7a5fb5f7b6e, type: 3}
    - time: 1.7666667
      value: {fileID: 21300000, guid: 9ae81804066f65f4aa1f0aae9381d832, type: 3}
    - time: 1.7833333
      value: {fileID: 21300000, guid: 1b6a48274a8fdd845b3988630f699a53, type: 3}
    - time: 1.8
      value: {fileID: 21300000, guid: cfbe33bd6f5172449822c8e36d268e74, type: 3}
    - time: 1.8166667
      value: {fileID: 21300000, guid: 54e6e27604da8ae43a3cf851f1a9933e, type: 3}
    - time: 1.8333334
      value: {fileID: 21300000, guid: 42886774c88a71443bfef4bc23fdf165, type: 3}
    - time: 1.85
      value: {fileID: 21300000, guid: 4b2240abbb4847b42b7ea906700d9288, type: 3}
    - time: 1.8666667
      value: {fileID: 21300000, guid: 7de75b878aab40645bec1ef4f70251af, type: 3}
    - time: 1.8833333
      value: {fileID: 21300000, guid: a85e4805d4f417246872d55999bae465, type: 3}
    - time: 1.9
      value: {fileID: 21300000, guid: 8af1fd76ddb436f45b12f45d7d8d1c45, type: 3}
    - time: 1.9166666
      value: {fileID: 21300000, guid: d7aee549063e66d409946485c8ef56ed, type: 3}
    - time: 1.9333333
      value: {fileID: 21300000, guid: 74af0696274b1444e99e9964e0d038ef, type: 3}
    - time: 1.95
      value: {fileID: 21300000, guid: 5d3f001870ecddc428c9f01a6fd2adbc, type: 3}
    - time: 1.9666667
      value: {fileID: 21300000, guid: 91277ce8b49abe5469d50aeba5b9ea7f, type: 3}
    - time: 1.9833333
      value: {fileID: 21300000, guid: 8fe6381e669ecca43ad33f4d42f1eb9a, type: 3}
    - time: 2
      value: {fileID: 21300000, guid: cb1f8919c676be44b8212d4a75e346a4, type: 3}
    - time: 2.0166667
      value: {fileID: 21300000, guid: 4205b5fc900188749a1db186eeff74a1, type: 3}
    - time: 2.0333333
      value: {fileID: 21300000, guid: 8f0e3b53aa08e4d47aca335baa3d7a7b, type: 3}
    - time: 2.05
      value: {fileID: 21300000, guid: 7c80acfec0b344d489a2f6e23152bdf3, type: 3}
    - time: 2.0666666
      value: {fileID: 21300000, guid: 800e9afe4d1bf434ebb9eb60dd75937f, type: 3}
    - time: 2.0833333
      value: {fileID: 21300000, guid: a63c6ab57555a61499c0ad6ee0c70404, type: 3}
    - time: 2.1
      value: {fileID: 21300000, guid: 87a9c8c822cebff478780e64f390db83, type: 3}
    - time: 2.1166666
      value: {fileID: 21300000, guid: 1854a0ab1320c1346ac7721bda9419ae, type: 3}
    - time: 2.1333334
      value: {fileID: 21300000, guid: fc5cde1eccecbae48ad19b52e2a79607, type: 3}
    - time: 2.15
      value: {fileID: 21300000, guid: 11a8d587a017af84aacbba01e688d534, type: 3}
    - time: 2.1666667
      value: {fileID: 21300000, guid: 2327ec0ff1252724d81b3fbc0ba017dc, type: 3}
    - time: 2.1833334
      value: {fileID: 21300000, guid: c4de28e753155164aafec02d2c46655a, type: 3}
    - time: 2.2
      value: {fileID: 21300000, guid: 73acb958921dc4642908118be4ff2888, type: 3}
    - time: 2.2166667
      value: {fileID: 21300000, guid: 21d7326037feaee4ba3822f1390e0d2f, type: 3}
    - time: 2.2333333
      value: {fileID: 21300000, guid: d80c9a1c7f0740347830148d25865444, type: 3}
    - time: 2.25
      value: {fileID: 21300000, guid: 3e3f82db05fb2524181f1ef8b4d808ed, type: 3}
    - time: 2.2666667
      value: {fileID: 21300000, guid: 2f8b6b5ff700c6946a4da2804bece22c, type: 3}
    - time: 2.2833333
      value: {fileID: 21300000, guid: 47905896a61abd94b8a4fa0e37d1e597, type: 3}
    - time: 2.3
      value: {fileID: 21300000, guid: b38165edb124430458d3bb66cf0d382f, type: 3}
    - time: 2.3166666
      value: {fileID: 21300000, guid: 0de86401313dafd4eb97ba76419515ea, type: 3}
    - time: 2.3333333
      value: {fileID: 21300000, guid: cf223ac83c9fe3641a6763543bd52712, type: 3}
    - time: 2.35
      value: {fileID: 21300000, guid: 2965b1f8a927613449f3fc464b7c2352, type: 3}
    - time: 2.3666666
      value: {fileID: 21300000, guid: cb0c22b2cabfd7c43b7db290a5704ef8, type: 3}
    - time: 2.3833334
      value: {fileID: 21300000, guid: 41075f8616b5edd44a8b293c480f9888, type: 3}
    - time: 2.4
      value: {fileID: 21300000, guid: e25bf7bac3f855540b9278ea419cb98f, type: 3}
    - time: 2.4166667
      value: {fileID: 21300000, guid: 2f65b4fec96689d46844f60d158545ed, type: 3}
    - time: 2.4333334
      value: {fileID: 21300000, guid: c7de4a3c108ee0149a3e01c8beea5a73, type: 3}
    - time: 2.45
      value: {fileID: 21300000, guid: 769e75dba5392fd4a89face004398ecf, type: 3}
    - time: 2.4666667
      value: {fileID: 21300000, guid: 898908513f87d7a4a968cc6ee89a33b3, type: 3}
    - time: 2.4833333
      value: {fileID: 21300000, guid: 1ec994ba5b653d241818f36ccb591300, type: 3}
    - time: 2.5
      value: {fileID: 21300000, guid: 16b73b5ff3ea1b248b85e2a53dc5ed2e, type: 3}
    - time: 2.5166667
      value: {fileID: 21300000, guid: bcf3fa842bbd0364b85b28fcfba763a6, type: 3}
    - time: 2.5333333
      value: {fileID: 21300000, guid: 7e311c685ffa1a246a9bd2ff96261a89, type: 3}
    - time: 2.55
      value: {fileID: 21300000, guid: 587a3074e6f8aa743bc8e519286548d1, type: 3}
    - time: 2.5666666
      value: {fileID: 21300000, guid: f7dffb359e46c0f40a6505cbad54e0a2, type: 3}
    - time: 2.5833333
      value: {fileID: 21300000, guid: 39c1b4e1b238ac749910e35b4dd2b4c4, type: 3}
    - time: 2.6
      value: {fileID: 21300000, guid: e561e196744017b428e2a071db81120a, type: 3}
    - time: 2.6166666
      value: {fileID: 21300000, guid: cb690ba38bede2042b6a6fb630bc81e8, type: 3}
    - time: 2.6333334
      value: {fileID: 21300000, guid: e6847a386b97cf540ad2e91607a64956, type: 3}
    - time: 2.65
      value: {fileID: 21300000, guid: 1b0a3bac956e7e0428883cd9efac495c, type: 3}
    - time: 2.6666667
      value: {fileID: 21300000, guid: 7c589eea902e17340bcbeafa7cf86e77, type: 3}
    - time: 2.6833334
      value: {fileID: 21300000, guid: c8959d03dc9653f4fb6aa602cde3eeaa, type: 3}
    - time: 2.7
      value: {fileID: 21300000, guid: 15e5493d894114a45a5903dc0a0121fb, type: 3}
    - time: 2.7166667
      value: {fileID: 21300000, guid: 16085d49152a42b438366cc133e08ec7, type: 3}
    - time: 2.7333333
      value: {fileID: 21300000, guid: aaaa239cb03e62c40b571ea3c0c450e8, type: 3}
    - time: 2.75
      value: {fileID: 21300000, guid: 6585920354c553544b59b7061305dbab, type: 3}
    - time: 2.7666667
      value: {fileID: 21300000, guid: 094c3660c41e3eb4eb6b72f3a2b5160e, type: 3}
    - time: 2.7833333
      value: {fileID: 21300000, guid: 0cc233cbe2969b549b5804394383b8f3, type: 3}
    - time: 2.8
      value: {fileID: 21300000, guid: b0b43be303592984f82bae107795cb1d, type: 3}
    - time: 2.8166666
      value: {fileID: 21300000, guid: c5012f1e21af8034b9a3e873d6ed2d5f, type: 3}
    - time: 2.8333333
      value: {fileID: 21300000, guid: dab0ee955587bb541b18621afa5454cf, type: 3}
    - time: 2.85
      value: {fileID: 21300000, guid: ffb2152a28ab9384ba236f9eeafcb8b6, type: 3}
    - time: 2.8666666
      value: {fileID: 21300000, guid: d48050bb84a6975428f435660f0a589a, type: 3}
    - time: 2.8833334
      value: {fileID: 21300000, guid: 2e568194162a2fc469447a29ef5278d8, type: 3}
    - time: 2.9
      value: {fileID: 21300000, guid: b2229012b668d7840a4f2601074cfc34, type: 3}
    - time: 2.9166667
      value: {fileID: 21300000, guid: 20f023013963eaa4d98858153255851f, type: 3}
    - time: 2.9333334
      value: {fileID: 21300000, guid: e2657aef836ed944db82bff2612d013e, type: 3}
    - time: 2.95
      value: {fileID: 21300000, guid: 74eaeb05af478334a9705f8998ad597e, type: 3}
    - time: 2.9666667
      value: {fileID: 21300000, guid: 0c0af68be37fb424a93918448e5fdc34, type: 3}
    - time: 2.9833333
      value: {fileID: 21300000, guid: 0276603e317fc774fbadf30426487898, type: 3}
    - time: 3
      value: {fileID: 21300000, guid: 0352eec17ed9b6440b576ea358d52f05, type: 3}
    - time: 3.0166667
      value: {fileID: 21300000, guid: 43de5f54ca3b2c24ba0facd8900e0179, type: 3}
    - time: 3.0333333
      value: {fileID: 21300000, guid: 1313f97adb78b3e4c82aaef73ed74892, type: 3}
    - time: 3.05
      value: {fileID: 21300000, guid: 4129a1e0ea343b646aa2701bddd35a9b, type: 3}
    - time: 3.0666666
      value: {fileID: 21300000, guid: f9c2a265c65e6ac488d2ad7162edefa1, type: 3}
    - time: 3.0833333
      value: {fileID: 21300000, guid: 32007ca3c9d6721448e037198ccb2888, type: 3}
    - time: 3.1
      value: {fileID: 21300000, guid: fdfe11e1e34f154468619bed96028a10, type: 3}
    - time: 3.1166666
      value: {fileID: 21300000, guid: 08d390cf42e9e0742a6570fcd7eb601b, type: 3}
    - time: 3.1333334
      value: {fileID: 21300000, guid: 6bc598c4f9aadb646868353fb61246b0, type: 3}
    - time: 3.15
      value: {fileID: 21300000, guid: 6f78462cee9410148ac40e57ef916d1f, type: 3}
    - time: 3.1666667
      value: {fileID: 21300000, guid: 0499dd86e3df11941b783fd4a56eb6cd, type: 3}
    - time: 3.1833334
      value: {fileID: 21300000, guid: b4b5d5a500f854a4baf3c2fcdf9e0c2c, type: 3}
    - time: 3.2
      value: {fileID: 21300000, guid: 730207d73e0fb3c46b74eae709b29dfe, type: 3}
    - time: 3.2166667
      value: {fileID: 21300000, guid: 5b8325f7d6c43cf48863acc3c61def97, type: 3}
    - time: 3.2333333
      value: {fileID: 21300000, guid: 9beded4c2ff88384d88c7d8b59e917cd, type: 3}
    - time: 3.25
      value: {fileID: 21300000, guid: ebf34f14701d88e48ae8b162d64126a3, type: 3}
    - time: 3.2666667
      value: {fileID: 21300000, guid: bc236492f75df7a47ab3c6ddc054f1f1, type: 3}
    - time: 3.2833333
      value: {fileID: 21300000, guid: 6c502dd87bbd3bd4eb273c93511a8e90, type: 3}
    - time: 3.3
      value: {fileID: 21300000, guid: f4ceafed4b8b95b4bb2c367d2042a859, type: 3}
    - time: 3.3166666
      value: {fileID: 21300000, guid: 5792201d0d6e8c046b705c6c7a72f36f, type: 3}
    - time: 3.3333333
      value: {fileID: 21300000, guid: 3788effef00e7e443b2d049d6ad4bfe1, type: 3}
    - time: 3.35
      value: {fileID: 21300000, guid: 148c322e1419a7e4bb8f0a0423d2826c, type: 3}
    - time: 3.3666666
      value: {fileID: 21300000, guid: 6250d0dfaf7fe5a44a889bd0146f9335, type: 3}
    - time: 3.3833334
      value: {fileID: 21300000, guid: 3b2212803f29ff441b7247ef522d80be, type: 3}
    - time: 3.4
      value: {fileID: 21300000, guid: 7c6392677fdf6164b82a75ad4387315a, type: 3}
    - time: 3.4166667
      value: {fileID: 21300000, guid: 39e4ab8f7056ccd4bbf8145af3b221ec, type: 3}
    - time: 3.4333334
      value: {fileID: 21300000, guid: b79457e7d43c3bd459ee4bd2f8bbd667, type: 3}
    - time: 3.45
      value: {fileID: 21300000, guid: fb361ae4ff87d9f41b67a3ab4619777d, type: 3}
    - time: 3.4666667
      value: {fileID: 21300000, guid: b7452f0f2e03f7445bd22852c73c1026, type: 3}
    - time: 3.4833333
      value: {fileID: 21300000, guid: 11c0d0598d3569143b4791b22f8d9aa9, type: 3}
    - time: 3.5
      value: {fileID: 21300000, guid: 9cbc6909d9bb4f641a9ed069b1d80f65, type: 3}
    - time: 3.5166667
      value: {fileID: 21300000, guid: 7e9b2d988ff9bda42b98bed790531577, type: 3}
    - time: 3.5333333
      value: {fileID: 21300000, guid: 432978306d4ed9943af68ca6079e07e4, type: 3}
    - time: 3.55
      value: {fileID: 21300000, guid: 1c4f0fc6098f3ac4aa69992b4738e992, type: 3}
    - time: 3.5666666
      value: {fileID: 21300000, guid: ff1d2071943c240489452ce0ffb6ec6b, type: 3}
    - time: 3.5833333
      value: {fileID: 21300000, guid: 0cc9ed4c8133aae48b8a08ae684a32d9, type: 3}
    - time: 3.6
      value: {fileID: 21300000, guid: b26b0b76427475745a0ab85cc5a8bff0, type: 3}
    - time: 3.6166666
      value: {fileID: 21300000, guid: b01e4df16d68000489af3e43fd93aaaa, type: 3}
    - time: 3.6333334
      value: {fileID: 21300000, guid: 111760d10d64e1f4c99b75aa445c0385, type: 3}
    - time: 3.65
      value: {fileID: 21300000, guid: 0e4da8ce16b75b3448a500448bbb8848, type: 3}
    - time: 3.6666667
      value: {fileID: 21300000, guid: b04ad3ab0eefe954c9b933acf80214d7, type: 3}
    - time: 3.6833334
      value: {fileID: 21300000, guid: 3a71e4a3aeddcfe4d8906f55e6b517ca, type: 3}
    - time: 3.7
      value: {fileID: 21300000, guid: 926cf680a707f1047a0bcafdad5374c4, type: 3}
    - time: 3.7166667
      value: {fileID: 21300000, guid: f4a5f18acae9cf54b9f9d16d85758465, type: 3}
    - time: 3.7333333
      value: {fileID: 21300000, guid: 70416b6a2cd012b40a89adc25fe095d6, type: 3}
    - time: 3.75
      value: {fileID: 21300000, guid: c79feecd50e15b543a8cba02f8d3d2db, type: 3}
    - time: 3.7666667
      value: {fileID: 21300000, guid: 6d5586f24b236b6458bcc325820fcc75, type: 3}
    - time: 3.7833333
      value: {fileID: 21300000, guid: 33f064d483c176c44b28331ab66e8ed9, type: 3}
    - time: 3.8
      value: {fileID: 21300000, guid: 37d1f8a8253f1a947a2a5a7bae58aadf, type: 3}
    - time: 3.8166666
      value: {fileID: 21300000, guid: b34c7537a20738143bad85b81fa76d27, type: 3}
    - time: 3.8333333
      value: {fileID: 21300000, guid: b9514dba28acf2a4a9cab982e41e7bc0, type: 3}
    - time: 3.85
      value: {fileID: 21300000, guid: 5c2faeedada41494a88bfac0737d0cd5, type: 3}
    - time: 3.8666666
      value: {fileID: 21300000, guid: f068b71fefe0e79419c788b30f77ddf4, type: 3}
    - time: 3.8833334
      value: {fileID: 21300000, guid: 040602f0bda989347a53fe589e481252, type: 3}
    - time: 3.9
      value: {fileID: 21300000, guid: e40de294c4a3d034a89bbddfb58c9bfd, type: 3}
    - time: 3.9166667
      value: {fileID: 21300000, guid: b3e9dec8a4b239b4ba5de8ee5dac8cb1, type: 3}
    - time: 3.9333334
      value: {fileID: 21300000, guid: 12de384eb11920e4d9d8aef4ed403507, type: 3}
    - time: 3.95
      value: {fileID: 21300000, guid: cbbbe4a0d45a9344c97ddeffc6929d59, type: 3}
    - time: 3.9666667
      value: {fileID: 21300000, guid: 5611c513317685541895b748c7f303f2, type: 3}
    - time: 3.9833333
      value: {fileID: 21300000, guid: cd41c1804c074ef429630840cad5f923, type: 3}
    - time: 4
      value: {fileID: 21300000, guid: cd89f07a700c52e4babe5b548c6c03e9, type: 3}
    attribute: m_Sprite
    path: 
    classID: 212
    script: {fileID: 0}
  m_SampleRate: 60
  m_WrapMode: 0
  m_Bounds:
    m_Center: {x: 0, y: 0, z: 0}
    m_Extent: {x: 0, y: 0, z: 0}
  m_ClipBindingConstant:
    genericBindings:
    - serializedVersion: 2
      path: 0
      attribute: 0
      script: {fileID: 0}
      typeID: 212
      customType: 23
      isPPtrCurve: 1
    pptrCurveMapping:
    - {fileID: 21300000, guid: 353cb9ba39509d243a9c334c0a3c39cd, type: 3}
    - {fileID: 21300000, guid: 9c69dbfdc3baf6f4aa8673e33dc04cbc, type: 3}
    - {fileID: 21300000, guid: b9b83df38542daf4095b9c86a196204d, type: 3}
    - {fileID: 21300000, guid: 1dcd13590a783f747aa725f5c79b9588, type: 3}
    - {fileID: 21300000, guid: d90266617ac01fe4d83e91be5e4dcea0, type: 3}
    - {fileID: 21300000, guid: f0f32f3a19326dd48a2b5fddb5a2652f, type: 3}
    - {fileID: 21300000, guid: 3921d632d9689514a80b038cbf1e0e9b, type: 3}
    - {fileID: 21300000, guid: d6766b8fb60ee8c47a2dd7f2911fcb39, type: 3}
    - {fileID: 21300000, guid: 0f756b64d74a1aa47a51ae3910a06c41, type: 3}
    - {fileID: 21300000, guid: 24a3f6e2a3a9c9b4494b2dd9b50b0b1b, type: 3}
    - {fileID: 21300000, guid: b6c97511abfcbad46acc08a545ac8c46, type: 3}
    - {fileID: 21300000, guid: d2d23d690906e5f45bdc3e22871a03fa, type: 3}
    - {fileID: 21300000, guid: 8e7df85919c542b4790ae12c17e758b9, type: 3}
    - {fileID: 21300000, guid: 187cb8aac5e50fc409827f4549007fa0, type: 3}
    - {fileID: 21300000, guid: c899382a2d086c044b137879d774202e, type: 3}
    - {fileID: 21300000, guid: 1c3295a1298f82d459884ee2a87d31e4, type: 3}
    - {fileID: 21300000, guid: 4625a1c3f195cef479cb6955eb44e248, type: 3}
    - {fileID: 21300000, guid: a1c3533c1d3be854181090b9ce882792, type: 3}
    - {fileID: 21300000, guid: a1c3533c1d3be854181090b9ce882792, type: 3}
    - {fileID: 21300000, guid: 8fe883313ad0e7048b6cff90135eb7d2, type: 3}
    - {fileID: 21300000, guid: b8500479b7b79984287885de09946c62, type: 3}
    - {fileID: 21300000, guid: d583a14046c22154aac2feb64258dd6a, type: 3}
    - {fileID: 21300000, guid: b8408575ef978704dabf4cf746de3322, type: 3}
    - {fileID: 21300000, guid: 9ae95f9e83dd8314fb01fb3e628253af, type: 3}
    - {fileID: 21300000, guid: 273eeff2671a0b642871a41b784ad79c, type: 3}
    - {fileID: 21300000, guid: fbb5223e86afab5448554cf80dd8e284, type: 3}
    - {fileID: 21300000, guid: faf8319721735b7428a72b805846ce14, type: 3}
    - {fileID: 21300000, guid: b9cce6e6b10b5dd42a83852c0002b125, type: 3}
    - {fileID: 21300000, guid: 37d86dda7a474bb49826b0892946cb0b, type: 3}
    - {fileID: 21300000, guid: bc58a44e8bf61ce4daa8cde4835e9ccb, type: 3}
    - {fileID: 21300000, guid: 349008d48662afb459ea378162ca682e, type: 3}
    - {fileID: 21300000, guid: 630e4b0c443fb644ba830ddde56068fb, type: 3}
    - {fileID: 21300000, guid: bea073e7a92502d4596dbffa0bab9da9, type: 3}
    - {fileID: 21300000, guid: e6ff1f5f91fb4e04da070f7f48fcae34, type: 3}
    - {fileID: 21300000, guid: 9dd4c0ddd69beb846ae57305024f309d, type: 3}
    - {fileID: 21300000, guid: 790f6f212cb5fb044a6ff635b8a2eb02, type: 3}
    - {fileID: 21300000, guid: cd4b8599f0c7aba42bce02a012caab17, type: 3}
    - {fileID: 21300000, guid: 2d7e39d0790dabf4b98da9439a255eea, type: 3}
    - {fileID: 21300000, guid: d5137539955fdb645bab88532cf7b7f5, type: 3}
    - {fileID: 21300000, guid: 9eebb50dddcdb404fa37343b541edc72, type: 3}
    - {fileID: 21300000, guid: b6978c53907ff1740970013102e6c10a, type: 3}
    - {fileID: 21300000, guid: 7250c66d4c819594eb7c87bdae6c8f78, type: 3}
    - {fileID: 21300000, guid: e516ffb14d906ac4092e1034557ca592, type: 3}
    - {fileID: 21300000, guid: 07ee68fe1f4cd944eb0e564cd3db4938, type: 3}
    - {fileID: 21300000, guid: fa362cffdf6733e498b1e8df2e546363, type: 3}
    - {fileID: 21300000, guid: 431c147762ecf394e9449e5e6831a0b6, type: 3}
    - {fileID: 21300000, guid: 4d368854cbfcbbb409499751ac06c720, type: 3}
    - {fileID: 21300000, guid: 1c7d8c7718d12aa4ea00e889ca933b2e, type: 3}
    - {fileID: 21300000, guid: 3f30bbb42df0282408d03f3169d90e53, type: 3}
    - {fileID: 21300000, guid: 3ca05377ae313924c8f7ec8e8564bc12, type: 3}
    - {fileID: 21300000, guid: ce828406958c9e64a87d5b6ff27d70eb, type: 3}
    - {fileID: 21300000, guid: 5d8cbe415b6c24b4da82a4f8977a3aba, type: 3}
    - {fileID: 21300000, guid: 7ba4f934913756b48bcef48668b05741, type: 3}
    - {fileID: 21300000, guid: 7e1cdc8018302bf40a771ce99da6c8ff, type: 3}
    - {fileID: 21300000, guid: ed689f3d3e0cbcd4d911a2b8c50fbdfc, type: 3}
    - {fileID: 21300000, guid: e0420bd56515aa4498bbe0304464a4dc, type: 3}
    - {fileID: 21300000, guid: 20b4d04fddf835343a5c01a263ed2481, type: 3}
    - {fileID: 21300000, guid: cede746ea8495ee40aa2cb93c988c324, type: 3}
    - {fileID: 21300000, guid: e7f94d20a61e94f4d802748d05332e42, type: 3}
    - {fileID: 21300000, guid: fcdfb965f889dc04095eabf0d3f07b46, type: 3}
    - {fileID: 21300000, guid: 810d45f519bbc1e41a9d6e119f2fd21d, type: 3}
    - {fileID: 21300000, guid: a4dc2fe0759c71840991d2c7e93321c6, type: 3}
    - {fileID: 21300000, guid: 994308d6d071540489c67a1e143894a7, type: 3}
    - {fileID: 21300000, guid: 34b320b39d5d27845a823d7ccb978079, type: 3}
    - {fileID: 21300000, guid: fecf886dcf0516f4082cca34efa3dfc8, type: 3}
    - {fileID: 21300000, guid: ee288f0a01deb1e4d8875a0b3fc8511f, type: 3}
    - {fileID: 21300000, guid: 6c0f1067d8464d649bdfc0d87f016479, type: 3}
    - {fileID: 21300000, guid: 7390b93faeb829b42b0a086875d872dd, type: 3}
    - {fileID: 21300000, guid: 8c880ed8554c6934780fb9e645092f70, type: 3}
    - {fileID: 21300000, guid: 24d00d81e1671d44c9f68da60a9105fc, type: 3}
    - {fileID: 21300000, guid: 3514a91482a402f41972dc566eccde27, type: 3}
    - {fileID: 21300000, guid: c01dd7c94904cf1409397aa5331d4740, type: 3}
    - {fileID: 21300000, guid: 9a21d5bcb7a7d19449989fb6bd7f7610, type: 3}
    - {fileID: 21300000, guid: 43f7b48766b97cc4fb3209733a1baaa7, type: 3}
    - {fileID: 21300000, guid: a646270a4b6873d4c93c5930a45851fa, type: 3}
    - {fileID: 21300000, guid: 0ad1cb1c6cf4e8946b96703def13c946, type: 3}
    - {fileID: 21300000, guid: bad14263cce41c04fafec89478055731, type: 3}
    - {fileID: 21300000, guid: 3cce6cacba9fc8d40a1c1f2d1508c06d, type: 3}
    - {fileID: 21300000, guid: 5ca155ce2599303419957bd755d1d70f, type: 3}
    - {fileID: 21300000, guid: c9db3c98b17953745b98138e1801d8e2, type: 3}
    - {fileID: 21300000, guid: a37e3bfde04519b4099b098db5ab7e6d, type: 3}
    - {fileID: 21300000, guid: 9d6a48f3a560e8f42ab7c4def27e3c8e, type: 3}
    - {fileID: 21300000, guid: 92ee2776cd5acb945a360fdf5cbb09f6, type: 3}
    - {fileID: 21300000, guid: 177b36df486c3ce459863a2ebf8be076, type: 3}
    - {fileID: 21300000, guid: f6224916d9699c343b801dd602c25267, type: 3}
    - {fileID: 21300000, guid: fa01d5a5f6e07ca4b8b9dcc3515fc8e2, type: 3}
    - {fileID: 21300000, guid: 6486f77dcc92dac42b6da69f91aa4bca, type: 3}
    - {fileID: 21300000, guid: a6e07f35d7c1d1c4b8e259ee3c92ec82, type: 3}
    - {fileID: 21300000, guid: f74bde669b7afcc469990bde2f949cfe, type: 3}
    - {fileID: 21300000, guid: 39e1318ae5c08a74080fa9ea9fe30c85, type: 3}
    - {fileID: 21300000, guid: 7be5bcb318e8a074bb66d515e35d7aad, type: 3}
    - {fileID: 21300000, guid: c6bd310e85a8689449467f4675abd9ea, type: 3}
    - {fileID: 21300000, guid: e5c5321c80982eb488833894fa546f81, type: 3}
    - {fileID: 21300000, guid: ba92a6ab5cee87e44841aad9dc643398, type: 3}
    - {fileID: 21300000, guid: bc31dd0375aa83847937468e6622c169, type: 3}
    - {fileID: 21300000, guid: 869ff3d5a7495234b8a9651d62d2454b, type: 3}
    - {fileID: 21300000, guid: dc9ee291c5c22154bbce287a8364b626, type: 3}
    - {fileID: 21300000, guid: ed8d1dffe3cd3c348a9da64f173387ac, type: 3}
    - {fileID: 21300000, guid: 3f694667d87674a46aa317c5be9130d2, type: 3}
    - {fileID: 21300000, guid: 068d063b25bc7474a8b2cad5a277ea95, type: 3}
    - {fileID: 21300000, guid: 1a9b12744764fbd45a3469d1c7cf972a, type: 3}
    - {fileID: 21300000, guid: 03c408638b339e74a92428e74315fe39, type: 3}
    - {fileID: 21300000, guid: 0411f84728845464d8becfb15ab06014, type: 3}
    - {fileID: 21300000, guid: 04dd96b987fc3aa4da87a2a6747ec3bc, type: 3}
    - {fileID: 21300000, guid: 22e882492b92895479882f981806633b, type: 3}
    - {fileID: 21300000, guid: 23257aacc67e73d4a809b7a5fb5f7b6e, type: 3}
    - {fileID: 21300000, guid: 9ae81804066f65f4aa1f0aae9381d832, type: 3}
    - {fileID: 21300000, guid: 1b6a48274a8fdd845b3988630f699a53, type: 3}
    - {fileID: 21300000, guid: cfbe33bd6f5172449822c8e36d268e74, type: 3}
    - {fileID: 21300000, guid: 54e6e27604da8ae43a3cf851f1a9933e, type: 3}
    - {fileID: 21300000, guid: 42886774c88a71443bfef4bc23fdf165, type: 3}
    - {fileID: 21300000, guid: 4b2240abbb4847b42b7ea906700d9288, type: 3}
    - {fileID: 21300000, guid: 7de75b878aab40645bec1ef4f70251af, type: 3}
    - {fileID: 21300000, guid: a85e4805d4f417246872d55999bae465, type: 3}
    - {fileID: 21300000, guid: 8af1fd76ddb436f45b12f45d7d8d1c45, type: 3}
    - {fileID: 21300000, guid: d7aee549063e66d409946485c8ef56ed, type: 3}
    - {fileID: 21300000, guid: 74af0696274b1444e99e9964e0d038ef, type: 3}
    - {fileID: 21300000, guid: 5d3f001870ecddc428c9f01a6fd2adbc, type: 3}
    - {fileID: 21300000, guid: 91277ce8b49abe5469d50aeba5b9ea7f, type: 3}
    - {fileID: 21300000, guid: 8fe6381e669ecca43ad33f4d42f1eb9a, type: 3}
    - {fileID: 21300000, guid: cb1f8919c676be44b8212d4a75e346a4, type: 3}
    - {fileID: 21300000, guid: 4205b5fc900188749a1db186eeff74a1, type: 3}
    - {fileID: 21300000, guid: 8f0e3b53aa08e4d47aca335baa3d7a7b, type: 3}
    - {fileID: 21300000, guid: 7c80acfec0b344d489a2f6e23152bdf3, type: 3}
    - {fileID: 21300000, guid: 800e9afe4d1bf434ebb9eb60dd75937f, type: 3}
    - {fileID: 21300000, guid: a63c6ab57555a61499c0ad6ee0c70404, type: 3}
    - {fileID: 21300000, guid: 87a9c8c822cebff478780e64f390db83, type: 3}
    - {fileID: 21300000, guid: 1854a0ab1320c1346ac7721bda9419ae, type: 3}
    - {fileID: 21300000, guid: fc5cde1eccecbae48ad19b52e2a79607, type: 3}
    - {fileID: 21300000, guid: 11a8d587a017af84aacbba01e688d534, type: 3}
    - {fileID: 21300000, guid: 2327ec0ff1252724d81b3fbc0ba017dc, type: 3}
    - {fileID: 21300000, guid: c4de28e753155164aafec02d2c46655a, type: 3}
    - {fileID: 21300000, guid: 73acb958921dc4642908118be4ff2888, type: 3}
    - {fileID: 21300000, guid: 21d7326037feaee4ba3822f1390e0d2f, type: 3}
    - {fileID: 21300000, guid: d80c9a1c7f0740347830148d25865444, type: 3}
    - {fileID: 21300000, guid: 3e3f82db05fb2524181f1ef8b4d808ed, type: 3}
    - {fileID: 21300000, guid: 2f8b6b5ff700c6946a4da2804bece22c, type: 3}
    - {fileID: 21300000, guid: 47905896a61abd94b8a4fa0e37d1e597, type: 3}
    - {fileID: 21300000, guid: b38165edb124430458d3bb66cf0d382f, type: 3}
    - {fileID: 21300000, guid: 0de86401313dafd4eb97ba76419515ea, type: 3}
    - {fileID: 21300000, guid: cf223ac83c9fe3641a6763543bd52712, type: 3}
    - {fileID: 21300000, guid: 2965b1f8a927613449f3fc464b7c2352, type: 3}
    - {fileID: 21300000, guid: cb0c22b2cabfd7c43b7db290a5704ef8, type: 3}
    - {fileID: 21300000, guid: 41075f8616b5edd44a8b293c480f9888, type: 3}
    - {fileID: 21300000, guid: e25bf7bac3f855540b9278ea419cb98f, type: 3}
    - {fileID: 21300000, guid: 2f65b4fec96689d46844f60d158545ed, type: 3}
    - {fileID: 21300000, guid: c7de4a3c108ee0149a3e01c8beea5a73, type: 3}
    - {fileID: 21300000, guid: 769e75dba5392fd4a89face004398ecf, type: 3}
    - {fileID: 21300000, guid: 898908513f87d7a4a968cc6ee89a33b3, type: 3}
    - {fileID: 21300000, guid: 1ec994ba5b653d241818f36ccb591300, type: 3}
    - {fileID: 21300000, guid: 16b73b5ff3ea1b248b85e2a53dc5ed2e, type: 3}
    - {fileID: 21300000, guid: bcf3fa842bbd0364b85b28fcfba763a6, type: 3}
    - {fileID: 21300000, guid: 7e311c685ffa1a246a9bd2ff96261a89, type: 3}
    - {fileID: 21300000, guid: 587a3074e6f8aa743bc8e519286548d1, type: 3}
    - {fileID: 21300000, guid: f7dffb359e46c0f40a6505cbad54e0a2, type: 3}
    - {fileID: 21300000, guid: 39c1b4e1b238ac749910e35b4dd2b4c4, type: 3}
    - {fileID: 21300000, guid: e561e196744017b428e2a071db81120a, type: 3}
    - {fileID: 21300000, guid: cb690ba38bede2042b6a6fb630bc81e8, type: 3}
    - {fileID: 21300000, guid: e6847a386b97cf540ad2e91607a64956, type: 3}
    - {fileID: 21300000, guid: 1b0a3bac956e7e0428883cd9efac495c, type: 3}
    - {fileID: 21300000, guid: 7c589eea902e17340bcbeafa7cf86e77, type: 3}
    - {fileID: 21300000, guid: c8959d03dc9653f4fb6aa602cde3eeaa, type: 3}
    - {fileID: 21300000, guid: 15e5493d894114a45a5903dc0a0121fb, type: 3}
    - {fileID: 21300000, guid: 16085d49152a42b438366cc133e08ec7, type: 3}
    - {fileID: 21300000, guid: aaaa239cb03e62c40b571ea3c0c450e8, type: 3}
    - {fileID: 21300000, guid: 6585920354c553544b59b7061305dbab, type: 3}
    - {fileID: 21300000, guid: 094c3660c41e3eb4eb6b72f3a2b5160e, type: 3}
    - {fileID: 21300000, guid: 0cc233cbe2969b549b5804394383b8f3, type: 3}
    - {fileID: 21300000, guid: b0b43be303592984f82bae107795cb1d, type: 3}
    - {fileID: 21300000, guid: c5012f1e21af8034b9a3e873d6ed2d5f, type: 3}
    - {fileID: 21300000, guid: dab0ee955587bb541b18621afa5454cf, type: 3}
    - {fileID: 21300000, guid: ffb2152a28ab9384ba236f9eeafcb8b6, type: 3}
    - {fileID: 21300000, guid: d48050bb84a6975428f435660f0a589a, type: 3}
    - {fileID: 21300000, guid: 2e568194162a2fc469447a29ef5278d8, type: 3}
    - {fileID: 21300000, guid: b2229012b668d7840a4f2601074cfc34, type: 3}
    - {fileID: 21300000, guid: 20f023013963eaa4d98858153255851f, type: 3}
    - {fileID: 21300000, guid: e2657aef836ed944db82bff2612d013e, type: 3}
    - {fileID: 21300000, guid: 74eaeb05af478334a9705f8998ad597e, type: 3}
    - {fileID: 21300000, guid: 0c0af68be37fb424a93918448e5fdc34, type: 3}
    - {fileID: 21300000, guid: 0276603e317fc774fbadf30426487898, type: 3}
    - {fileID: 21300000, guid: 0352eec17ed9b6440b576ea358d52f05, type: 3}
    - {fileID: 21300000, guid: 43de5f54ca3b2c24ba0facd8900e0179, type: 3}
    - {fileID: 21300000, guid: 1313f97adb78b3e4c82aaef73ed74892, type: 3}
    - {fileID: 21300000, guid: 4129a1e0ea343b646aa2701bddd35a9b, type: 3}
    - {fileID: 21300000, guid: f9c2a265c65e6ac488d2ad7162edefa1, type: 3}
    - {fileID: 21300000, guid: 32007ca3c9d6721448e037198ccb2888, type: 3}
    - {fileID: 21300000, guid: fdfe11e1e34f154468619bed96028a10, type: 3}
    - {fileID: 21300000, guid: 08d390cf42e9e0742a6570fcd7eb601b, type: 3}
    - {fileID: 21300000, guid: 6bc598c4f9aadb646868353fb61246b0, type: 3}
    - {fileID: 21300000, guid: 6f78462cee9410148ac40e57ef916d1f, type: 3}
    - {fileID: 21300000, guid: 0499dd86e3df11941b783fd4a56eb6cd, type: 3}
    - {fileID: 21300000, guid: b4b5d5a500f854a4baf3c2fcdf9e0c2c, type: 3}
    - {fileID: 21300000, guid: 730207d73e0fb3c46b74eae709b29dfe, type: 3}
    - {fileID: 21300000, guid: 5b8325f7d6c43cf48863acc3c61def97, type: 3}
    - {fileID: 21300000, guid: 9beded4c2ff88384d88c7d8b59e917cd, type: 3}
    - {fileID: 21300000, guid: ebf34f14701d88e48ae8b162d64126a3, type: 3}
    - {fileID: 21300000, guid: bc236492f75df7a47ab3c6ddc054f1f1, type: 3}
    - {fileID: 21300000, guid: 6c502dd87bbd3bd4eb273c93511a8e90, type: 3}
    - {fileID: 21300000, guid: f4ceafed4b8b95b4bb2c367d2042a859, type: 3}
    - {fileID: 21300000, guid: 5792201d0d6e8c046b705c6c7a72f36f, type: 3}
    - {fileID: 21300000, guid: 3788effef00e7e443b2d049d6ad4bfe1, type: 3}
    - {fileID: 21300000, guid: 148c322e1419a7e4bb8f0a0423d2826c, type: 3}
    - {fileID: 21300000, guid: 6250d0dfaf7fe5a44a889bd0146f9335, type: 3}
    - {fileID: 21300000, guid: 3b2212803f29ff441b7247ef522d80be, type: 3}
    - {fileID: 21300000, guid: 7c6392677fdf6164b82a75ad4387315a, type: 3}
    - {fileID: 21300000, guid: 39e4ab8f7056ccd4bbf8145af3b221ec, type: 3}
    - {fileID: 21300000, guid: b79457e7d43c3bd459ee4bd2f8bbd667, type: 3}
    - {fileID: 21300000, guid: fb361ae4ff87d9f41b67a3ab4619777d, type: 3}
    - {fileID: 21300000, guid: b7452f0f2e03f7445bd22852c73c1026, type: 3}
    - {fileID: 21300000, guid: 11c0d0598d3569143b4791b22f8d9aa9, type: 3}
    - {fileID: 21300000, guid: 9cbc6909d9bb4f641a9ed069b1d80f65, type: 3}
    - {fileID: 21300000, guid: 7e9b2d988ff9bda42b98bed790531577, type: 3}
    - {fileID: 21300000, guid: 432978306d4ed9943af68ca6079e07e4, type: 3}
    - {fileID: 21300000, guid: 1c4f0fc6098f3ac4aa69992b4738e992, type: 3}
    - {fileID: 21300000, guid: ff1d2071943c240489452ce0ffb6ec6b, type: 3}
    - {fileID: 21300000, guid: 0cc9ed4c8133aae48b8a08ae684a32d9, type: 3}
    - {fileID: 21300000, guid: b26b0b76427475745a0ab85cc5a8bff0, type: 3}
    - {fileID: 21300000, guid: b01e4df16d68000489af3e43fd93aaaa, type: 3}
    - {fileID: 21300000, guid: 111760d10d64e1f4c99b75aa445c0385, type: 3}
    - {fileID: 21300000, guid: 0e4da8ce16b75b3448a500448bbb8848, type: 3}
    - {fileID: 21300000, guid: b04ad3ab0eefe954c9b933acf80214d7, type: 3}
    - {fileID: 21300000, guid: 3a71e4a3aeddcfe4d8906f55e6b517ca, type: 3}
    - {fileID: 21300000, guid: 926cf680a707f1047a0bcafdad5374c4, type: 3}
    - {fileID: 21300000, guid: f4a5f18acae9cf54b9f9d16d85758465, type: 3}
    - {fileID: 21300000, guid: 70416b6a2cd012b40a89adc25fe095d6, type: 3}
    - {fileID: 21300000, guid: c79feecd50e15b543a8cba02f8d3d2db, type: 3}
    - {fileID: 21300000, guid: 6d5586f24b236b6458bcc325820fcc75, type: 3}
    - {fileID: 21300000, guid: 33f064d483c176c44b28331ab66e8ed9, type: 3}
    - {fileID: 21300000, guid: 37d1f8a8253f1a947a2a5a7bae58aadf, type: 3}
    - {fileID: 21300000, guid: b34c7537a20738143bad85b81fa76d27, type: 3}
    - {fileID: 21300000, guid: b9514dba28acf2a4a9cab982e41e7bc0, type: 3}
    - {fileID: 21300000, guid: 5c2faeedada41494a88bfac0737d0cd5, type: 3}
    - {fileID: 21300000, guid: f068b71fefe0e79419c788b30f77ddf4, type: 3}
    - {fileID: 21300000, guid: 040602f0bda989347a53fe589e481252, type: 3}
    - {fileID: 21300000, guid: e40de294c4a3d034a89bbddfb58c9bfd, type: 3}
    - {fileID: 21300000, guid: b3e9dec8a4b239b4ba5de8ee5dac8cb1, type: 3}
    - {fileID: 21300000, guid: 12de384eb11920e4d9d8aef4ed403507, type: 3}
    - {fileID: 21300000, guid: cbbbe4a0d45a9344c97ddeffc6929d59, type: 3}
    - {fileID: 21300000, guid: 5611c513317685541895b748c7f303f2, type: 3}
    - {fileID: 21300000, guid: cd41c1804c074ef429630840cad5f923, type: 3}
    - {fileID: 21300000, guid: cd89f07a700c52e4babe5b548c6c03e9, type: 3}
  m_AnimationClipSettings:
    serializedVersion: 2
    m_AdditiveReferencePoseClip: {fileID: 0}
    m_AdditiveReferencePoseTime: 0
    m_StartTime: 0
    m_StopTime: 4.016667
    m_OrientationOffsetY: 0
    m_Level: 0
    m_CycleOffset: 0
    m_HasAdditiveReferencePose: 0
    m_LoopTime: 1
    m_LoopBlend: 0
    m_LoopBlendOrientation: 0
    m_LoopBlendPositionY: 0
    m_LoopBlendPositionXZ: 0
    m_KeepOriginalOrientation: 0
    m_KeepOriginalPositionY: 1
    m_KeepOriginalPositionXZ: 0
    m_HeightFromFeet: 0
    m_Mirror: 0
  m_EditorCurves: []
  m_EulerEditorCurves: []
  m_HasGenericRootTransform: 0
  m_HasMotionFloatCurves: 0
  m_Events: []
